Teaching with tidyverse
…
# Convert weight from grams to kg
subset <- subset %>% 
  rename(weight_g = weight) %>% 
  mutate(weight_kg = weight_g / 1000)

subset

## # A tibble: 6,020 x 7
##    siteID collectDate         taxonID sex   weight_g totalLength weight_kg
##    <chr>  <dttm>              <chr>   <chr>    <dbl>       <dbl>     <dbl>
##  1 SCBI   2015-04-14 00:00:00 MUMU    M           21          NA     0.021
##  2 SCBI   2015-04-14 00:00:00 PELE    M           16          NA     0.016
##  3 SCBI   2015-04-14 00:00:00 PELE    F           28          NA     0.028
##  4 SCBI   2015-04-14 00:00:00 PELE    M           22          NA     0.022
##  5 SCBI   2015-04-14 00:00:00 PELE    M           26          NA     0.026
##  6 SCBI   2015-04-14 00:00:00 PELE    M           18          NA     0.018
##  7 SCBI   2015-04-15 00:00:00 MUMU    F           22          NA     0.022
##  8 SCBI   2015-04-15 00:00:00 MIPE    M           56         150     0.056
##  9 SCBI   2015-04-15 00:00:00 MIPE    M           50          NA     0.05 
## 10 SCBI   2015-04-15 00:00:00 MIPE    M           41          NA     0.041
## # i 6,010 more rows
…
For example, we can calculate those same weight summary statistics
for male and female individuals within each taxon by adding just
one word to our earlier command!

subset %>% 
  group_by(taxonID, sex) %>% 
  summarize(mean_weight_g = mean(weight_g),
            sd_weight_g = sd(weight_g),
            count = n())

## `summarise()` has grouped output by 'taxonID'. You can override using the
## `.groups` argument.

## # A tibble: 28 x 5
## # Groups:   taxonID [16]
##    taxonID sex   mean_weight_g sd_weight_g count
##    <chr>   <chr>         <dbl>       <dbl> <int>
##  1 BLBR    F              16.4        2.89    33
##  2 BLBR    M              15.5        2.12     2
##  3 CRSP    M              20         NA        1
##  4 MIPE    F              37.0        9.88    97
##  5 MIPE    M              36.6       11.3    144
##  6 MIPI    F              25          1.90     6
##  7 MIPI    M              20.8        2.99     4
##  8 MUFR    M             210         NA        1
##  9 MUMU    F              17.2        5.60   149
## 10 MUMU    M              14.2        5.24   171
## # i 18 more rows
…
weight_summary <- subset %>% 
  group_by(taxonID, sex) %>% 
  summarize(mean_weight_g = round(mean(weight_g), 0),
            sd_weight_g = round(sd(weight_g), 0),
            count = n())

## `summarise()` has grouped output by 'taxonID'. You can override using the
## `.groups` argument.

weight_summary

## # A tibble: 28 x 5
## # Groups:   taxonID [16]
##    taxonID sex   mean_weight_g sd_weight_g count
##    <chr>   <chr>         <dbl>       <dbl> <int>
##  1 BLBR    F                16           3    33
##  2 BLBR    M                16           2     2
##  3 CRSP    M                20          NA     1
##  4 MIPE    F                37          10    97
##  5 MIPE    M                37          11   144
##  6 MIPI    F                25           2     6
##  7 MIPI    M                21           3     4
##  8 MUFR    M               210          NA     1
##  9 MUMU    F                17           6   149
## 10 MUMU    M                14           5   171
## # i 18 more rows
…
